fifo_UVM/fifo/.vcd
$date
	Sun Aug 18 03:15:30 2019
$end

$version
	Synopsys VCS version L-2016.06_Full64
$end

$timescale
	1ps
$end

$comment Csum: 1 2786b723cd3348c3 $end


$scope module tb_asyn_fifo $end

$scope module asyn_fifo1 $end
$var wire 1 ! wclk $end
$var wire 1 " rclk $end
$var wire 1 # wrst_n $end
$var wire 1 $ rrst_n $end
$var wire 1 % winc $end
$var wire 1 & rinc $end
$var wire 8 ' wdata [7:0] $end
$var wire 1 ( wfull $end
$var wire 1 ) rempty $end
$var wire 8 * rdata [7:0] $end
$var wire 4 + waddr [3:0] $end
$var wire 4 , raddr [3:0] $end
$var wire 5 - rptr [4:0] $end
$var wire 5 . wptr [4:0] $end
$var wire 5 / wq2_rptr [4:0] $end
$var wire 5 0 rq2_wptr [4:0] $end

$scope module fifomem11 $end
$var wire 4 + waddr [3:0] $end
$var wire 4 , raddr [3:0] $end
$var wire 8 ' wdata [7:0] $end
$var wire 1 ! wclk $end
$var wire 1 % wclken $end
$var wire 1 ( wfull $end
$var wire 8 * rdata [7:0] $end
$upscope $end


$scope module sync_r2w11 $end
$var wire 5 - rptr [4:0] $end
$var wire 1 ! wclk $end
$var wire 1 # wrst_n $end
$var reg 5 1 wq2_rptr [4:0] $end
$var reg 5 2 wq1_rptr [4:0] $end
$upscope $end


$scope module sync_w2r11 $end
$var wire 5 . wptr [4:0] $end
$var reg 5 3 rq2_wptr [4:0] $end
$var wire 1 " rclk $end
$var wire 1 $ rrst_n $end
$var reg 5 4 rq1_wptr [4:0] $end
$upscope $end


$scope module rpte_empty11 $end
$var wire 1 $ rrst_n $end
$var wire 1 " rclk $end
$var wire 1 & rinc $end
$var wire 5 0 rq2_wptr [4:0] $end
$var wire 4 , raddr [3:0] $end
$var reg 5 5 rptr [4:0] $end
$var reg 1 6 rempty $end
$var reg 5 7 rbin [4:0] $end
$var wire 5 8 rbnext [4:0] $end
$var wire 5 9 rgnext [4:0] $end
$var wire 1 : rempty_val $end
$upscope $end


$scope module wptr_full11 $end
$var wire 1 ! wclk $end
$var wire 1 # wrst_n $end
$var wire 1 % winc $end
$var wire 5 / wq2_rptr [4:0] $end
$var reg 5 ; wptr [4:0] $end
$var wire 4 + waddr [3:0] $end
$var reg 1 < wfull $end
$var reg 5 = wbin [4:0] $end
$var wire 5 > wbnext [4:0] $end
$var wire 5 ? wgnext [4:0] $end
$var wire 1 @ wfull_val $end
$upscope $end

$upscope $end

$upscope $end

$enddefinitions $end

#26000
$dumpvars
1:
16
0@
0<
b0000 ,
b00000 7
b00000 8
b00000 9
b00000 5
b00000 -
b00101 4
b00000 0
b00000 1
b00000 3
b1001 +
b01001 =
b01010 >
b01111 ?
b01101 .
b01101 ;
b00000 2
b00000 /
0!
1"
1#
1$
1%
1&
b00011011 '
0(
1)
b00110110 *
$end
#27000
1!
b01010 =
b1010 +
b01111 ;
b01111 .
b01011 >
b01110 ?
#28000
0"
0!
#29000
1!
b01011 =
b1011 +
b01110 ;
b01110 .
b01100 >
b01001 ?
b01010 ?
#30000
0!
#31000
1!
b01100 =
b1100 +
b01010 ;
b01010 .
b01101 >
b01011 ?
#32000
0!
#33000
1!
b01101 =
b1101 +
b01011 ;
b01011 .
b01110 >
b01000 ?
b01001 ?
#34000
0!
#35000
1"
1!
b00101 3
b00101 0
b01011 4
b01110 =
b1110 +
b01001 ;
b01001 .
0:
b01111 >
b01000 ?
#36000
0!
#37000
1!
b01111 =
b1111 +
b01000 ;
b01000 .
b10000 >
b10111 ?
b11000 ?
1@
#38000
0!
#39000
1!
b10000 =
b0000 +
b11000 ;
b11000 .
1<
1(
b10000 >
#40000
0!
#41000
1!
#42000
0"
0!
#43000
1!
#44000
0!
#45000
1!
#46000
0!
#47000
1!
#48000
0!
#49000
1"
1!
b01011 3
b01011 0
b11000 4
06
0)
b00001 8
b00001 9
#50000
0!
#51000
1!
#52000
0!
#53000
1!
#54000
0!
#55000
1!
#56000
0"
0!
#57000
1!
#58000
0!
#59000
1!
#60000
0!
#61000
1!
#62000
0!
#63000
1"
1!
b11000 3
b11000 0
b00001 5
b00001 -
b00001 7
b0001 ,
b00111100 *
b00010 8
b00010 9
b00011 9
#64000
0!
#65000
1!
b00001 2
#66000
0!
#67000
1!
b00001 1
b00001 /
0@
#68000
0!
#69000
1!
0<
0(
b10001 >
b11001 ?
1@
#70000
0"
0!
#71000
1!
b10001 =
b0001 +
b11001 ;
b11001 .
1<
1(
b10001 >
#72000
0!
#73000
1!
#74000
0!
#75000
1!
#76000
0!
#77000
1"
1!
b11001 4
b00011 5
b00011 -
b00010 7
b0010 ,
b01111101 *
b00011 8
b00010 9
#78000
0!
#79000
1!
b00011 2
#80000
0!
#81000
1!
b00011 1
b00011 /
0@
#82000
0!
#83000
1!
0<
0(
b10010 >
b11010 ?
b11011 ?
1@
#84000
0"
0!
#85000
1!
b10010 =
b0010 +
b11011 ;
b11011 .
1<
1(
b10010 >
#86000
0!
#87000
1!
#88000
0!
#89000
1!
#90000
0!
#91000
1"
1!
b11001 3
b11001 0
b11011 4
b00010 5
b00010 -
b00011 7
b0011 ,
b11100010 *
b00100 8
b00101 9
b00110 9
#92000
0!
#93000
1!
b00010 2
#94000
0!
#95000
1!
b00010 1
b00010 /
0@
#96000
0!
#97000
1!
0<
0(
b10011 >
b11010 ?
1@
#98000
0"
0!
#99000
1!
b10011 =
b0011 +
b11010 ;
b11010 .
1<
1(
b10011 >
#100000
0!
#101000
1!
#102000
0!
#103000
1!
#104000
0!
#105000
1"
1!
b11011 3
b11011 0
b11010 4
b00110 5
b00110 -
b00100 7
b0100 ,
b00001011 *
b00101 8
b00111 9
#106000
0!
#107000
1!
b00110 2
#108000
0!
#109000
1!
b00110 1
b00110 /
0@
#110000
0!
#111000
1!
0<
0(
b10100 >
b11101 ?
b11110 ?
1@
#112000
0"
0!
#113000
1!
b10100 =
b0100 +
b11110 ;
b11110 .
1<
1(
b10100 >
#114000
0!
#115000
1!
#116000
0!
#117000
1!
#118000
0!
#119000
1"
1!
b11010 3
b11010 0
b11110 4
b00111 5
b00111 -
b00101 7
b0101 ,
b11011111 *
b00110 8
b00100 9
b00101 9
#120000
0!
#121000
1!
b00111 2
#122000
0!
#123000
1!
b00111 1
b00111 /
0@
#124000
0!
#125000
1!
0<
0(
b10101 >
b11111 ?
1@
#126000
0"
0!
#127000
1!
b10101 =
b0101 +
b11111 ;
b11111 .
1<
1(
b10101 >
#128000
0!
#129000
1!
#130000
0!
#131000
1!
#132000
0!
#133000
1"
1!
b11110 3
b11110 0
b11111 4
b00101 5
b00101 -
b00110 7
b0110 ,
b01000000 *
b00111 8
b00100 9
#134000
0!
#135000
1!
b00101 2
#136000
0!
#137000
1!
b00101 1
b00101 /
0@
#138000
0!
#139000
1!
0<
0(
b10110 >
b11100 ?
b11101 ?
1@
#140000
0"
0!
#141000
1!
b10110 =
b0110 +
b11101 ;
b11101 .
1<
1(
b10110 >
#142000
0!
#143000
1!
#144000
0!
#145000
1!
#146000
0!
#147000
1"
1!
b11111 3
b11111 0
b11101 4
b00100 5
b00100 -
b00111 7
b0111 ,
b11110111 *
b01000 8
b01011 9
b01100 9
#148000
0!
#149000
1!
b00100 2
#150000
0!
#151000
1!
b00100 1
b00100 /
0@
#152000
0!
#153000
1!
0<
0(
b10111 >
b11100 ?
1@
#154000
0"
0!
#155000
1!
b10111 =
b0111 +
b11100 ;
b11100 .
1<
1(
b10111 >
#156000
0!
#157000
1!
#158000
0!
#159000
1!
#160000
0!
#161000
1"
1!
b11101 3
b11101 0
b11100 4
b01100 5
b01100 -
b01000 7
b1000 ,
b10100110 *
b01001 8
b01101 9
#162000
0!
#163000
1!
b01100 2
#164000
0!
#165000
1!
b01100 1
b01100 /
0@
#166000
0!
#167000
1!
0<
0(
b11000 >
b10011 ?
b10100 ?
1@
#168000
0"
0!
#169000
1!
b11000 =
b1000 +
b10100 ;
b10100 .
1<
1(
b11000 >
#170000
0!
#171000
1!
#172000
0!
#173000
1!
#174000
0!
#175000
1"
1!
b11100 3
b11100 0
b10100 4
b01101 5
b01101 -
b01001 7
b1001 ,
b00011011 *
b01010 8
b01110 9
b01111 9
#176000
0!
#177000
1!
b01101 2
#178000
0!
#179000
1!
b01101 1
b01101 /
0@
#180000
0!
#181000
1!
0<
0(
b11001 >
b10101 ?
1@
#182000
0"
0!
#183000
1!
b11001 =
b1001 +
b10101 ;
b10101 .
1<
1(
b11001 >
#184000
0!
#185000
1!
#186000
0!
#187000
1!
#188000
0!
#189000
1"
1!
b10100 3
b10100 0
b10101 4
b01111 5
b01111 -
b01010 7
b1010 ,
b01011 8
b01110 9
#190000
0!
#191000
1!
b01111 2
#192000
0!
#193000
1!
b01111 1
b01111 /
0@
#194000
0!
#195000
1!
0<
0(
b11010 >
b10110 ?
b10111 ?
1@
#196000
0"
0!
#197000
1!
b11010 =
b1010 +
b10111 ;
b10111 .
1<
1(
b11010 >
#198000
0!
#199000
1!
#200000
0!
#201000
1!
#202000
0!
#203000
1"
1!
b10101 3
b10101 0
b10111 4
b01110 5
b01110 -
b01011 7
b1011 ,
b01100 8
b01001 9
b01010 9
#204000
0!
#205000
1!
b01110 2
#206000
0!
#207000
1!
b01110 1
b01110 /
0@
#208000
0!
#209000
1!
0<
0(
b11011 >
b10110 ?
1@
#210000
0"
0!
#211000
1!
b11011 =
b1011 +
b10110 ;
b10110 .
1<
1(
b11011 >
#212000
0!
#213000
1!
#214000
0!
#215000
1!
#216000
0!
#217000
1"
1!
b10111 3
b10111 0
b10110 4
b01010 5
b01010 -
b01100 7
b1100 ,
b01101 8
b01011 9
#218000
0!
#219000
1!
b01010 2
#220000
0!
#221000
1!
b01010 1
b01010 /
0@
#222000
0!
#223000
1!
0<
0(
b11100 >
b10001 ?
b10010 ?
1@
#224000
0"
0!
#225000
1!
b11100 =
b1100 +
b10010 ;
b10010 .
1<
1(
b11100 >
#226000
0!
#227000
1!
#228000
0!
#229000
1!
#230000
0!
#231000
1"
1!
b10110 3
b10110 0
b10010 4
b01011 5
b01011 -
b01101 7
b1101 ,
b01110 8
b01000 9
b01001 9
#232000
0!
#233000
1!
b01011 2
#234000
0!
#235000
1!
b01011 1
b01011 /
0@
#236000
0!
#237000
1!
0<
0(
b11101 >
b10011 ?
1@
#238000
0"
0!
#239000
1!
b11101 =
b1101 +
b10011 ;
b10011 .
1<
1(
b11101 >
#240000
0!
#241000
1!
#242000
0!
#243000
1!
#244000
0!
#245000
1"
1!
b10010 3
b10010 0
b10011 4
b01001 5
b01001 -
b01110 7
b1110 ,
b01111 8
b01000 9
#246000
0!
#247000
1!
b01001 2
#248000
0!
#249000
1!
b01001 1
b01001 /
0@
#250000
0!
#251000
1!
0<
0(
b11110 >
b10000 ?
b10001 ?
1@
#252000
0"
0!
#253000
1!
b11110 =
b1110 +
b10001 ;
b10001 .
1<
1(
b11110 >
#254000
0!
#255000
1!
#256000
0!
#257000
1!
#258000
0!
#259000
1"
1!
b10011 3
b10011 0
b10001 4
b01000 5
b01000 -
b01111 7
b1111 ,
b10000 8
b10111 9
b11000 9
#260000
0!
#261000
1!
b01000 2
#262000
0!
#263000
1!
b01000 1
b01000 /
0@
#264000
0!
#265000
1!
0<
0(
b11111 >
b10000 ?
1@
#266000
0"
0!
#267000
1!
b11111 =
b1111 +
b10000 ;
b10000 .
1<
1(
b11111 >
#268000
0!
#269000
1!
#270000
0!
#271000
1!
#272000
0!
#273000
1"
1!
b10001 3
b10001 0
b10000 4
b11000 5
b11000 -
b10000 7
b0000 ,
b10001 8
b11001 9
#274000
0!
#275000
1!
b11000 2
#276000
0!
#277000
1!
b11000 1
b11000 /
0@
#278000
0!
#279000
1!
0<
0(
b00000 >
b01111 ?
b00000 ?
1@
#280000
0"
0!
#281000
1!
b00000 =
b0000 +
b00000 ;
b00000 .
1<
1(
b00000 >
#282000
0!
#283000
1!
#284000
0!
#285000
1!
#286000
0!
#287000
1"
1!
b10000 3
b10000 0
b00000 4
b11001 5
b11001 -
b10001 7
b0001 ,
b10010 8
b11010 9
b11011 9
#288000
0!
#289000
1!
b11001 2
#290000
0!
#291000
1!
b11001 1
b11001 /
0@
#292000
0!
#293000
1!
0<
0(
b00001 >
b00001 ?
1@
#294000
0"
0!
#295000
1!
b00001 =
b0001 +
b00001 ;
b00001 .
1<
1(
b00001 >
#296000
0!
#297000
1!
#298000
0!
#299000
1!
#300000
0!
#301000
1"
1!
b00000 3
b00000 0
b00001 4
b11011 5
b11011 -
b10010 7
b0010 ,
b10011 8
b11010 9
#302000
0!
#303000
1!
b11011 2
#304000
0!
#305000
1!
b11011 1
b11011 /
0@
#306000
0!
#307000
1!
0<
0(
b00010 >
b00010 ?
b00011 ?
1@
#308000
0"
0!
#309000
1!
b00010 =
b0010 +
b00011 ;
b00011 .
1<
1(
b00010 >
#310000
0!
#311000
1!
#312000
0!
#313000
1!
#314000
0!
#315000
1"
1!
b00001 3
b00001 0
b00011 4
b11010 5
b11010 -
b10011 7
b0011 ,
b10100 8
b11101 9
b11110 9
#316000
0!
#317000
1!
b11010 2
#318000
0!
#319000
1!
b11010 1
b11010 /
0@
#320000
0!
#321000
1!
0<
0(
b00011 >
b00010 ?
1@
#322000
0"
0!
#323000
1!
b00011 =
b0011 +
b00010 ;
b00010 .
1<
1(
b00011 >
#324000
0!
#325000
1!
#326000
0!
#327000
1!
#328000
0!
#329000
1"
1!
b00011 3
b00011 0
b00010 4
b11110 5
b11110 -
b10100 7
b0100 ,
b10101 8
b11111 9
#330000
0!
#331000
1!
b11110 2
#332000
0!
#333000
1!
b11110 1
b11110 /
0@
#334000
0!
#335000
1!
0<
0(
b00100 >
b00101 ?
b00110 ?
1@
#336000
0"
0!
#337000
1!
b00100 =
b0100 +
b00110 ;
b00110 .
1<
1(
b00100 >
#338000
0!
#339000
1!
#340000
0!
#341000
1!
#342000
0!
#343000
1"
1!
b00010 3
b00010 0
b00110 4
b11111 5
b11111 -
b10101 7
b0101 ,
b10110 8
b11100 9
b11101 9
#344000
0!
#345000
1!
b11111 2
#346000
0!
#347000
1!
b11111 1
b11111 /
0@
#348000
0!
#349000
1!
0<
0(
b00101 >
b00111 ?
1@
#350000
0"
0!
#351000
1!
b00101 =
b0101 +
b00111 ;
b00111 .
1<
1(
b00101 >
#352000
0!
#353000
1!
#354000
0!
#355000
1!
#356000
0!
#357000
1"
1!
b00110 3
b00110 0
b00111 4
b11101 5
b11101 -
b10110 7
b0110 ,
b10111 8
b11100 9
#358000
0!
#359000
1!
b11101 2
#360000
0!
#361000
1!
b11101 1
b11101 /
0@
#362000
0!
#363000
1!
0<
0(
b00110 >
b00100 ?
b00101 ?
1@
#364000
0"
0!
#365000
1!
b00110 =
b0110 +
b00101 ;
b00101 .
1<
1(
b00110 >
#366000
0!
#367000
1!
#368000
0!
#369000
1!
#370000
0!
#371000
1"
1!
b00111 3
b00111 0
b00101 4
b11100 5
b11100 -
b10111 7
b0111 ,
b11000 8
b10011 9
b10100 9
#372000
0!
#373000
1!
b11100 2
#374000
0!
#375000
1!
b11100 1
b11100 /
0@
#376000
0!
#377000
1!
0<
0(
b00111 >
b00100 ?
1@
#378000
0"
0!
#379000
1!
b00111 =
b0111 +
b00100 ;
b00100 .
1<
1(
b00111 >
#380000
0!
#381000
1!
#382000
0!
#383000
1!
#384000
0!
#385000
1"
1!
b00101 3
b00101 0
b00100 4
b10100 5
b10100 -
b11000 7
b1000 ,
b11001 8
b10101 9
#386000
0!
#387000
1!
b10100 2
#388000
0!
#389000
1!
b10100 1
b10100 /
0@
#390000
0!
#391000
1!
0<
0(
b01000 >
b01011 ?
b01100 ?
1@
#392000
0"
0!
#393000
1!
b01000 =
b1000 +
b01100 ;
b01100 .
1<
1(
b01000 >
#394000
0!
#395000
1!
#396000
0!
#397000
1!
#398000
0!
#399000
1"
1!
b00100 3
b00100 0
b01100 4
b10101 5
b10101 -
b11001 7
b1001 ,
b11010 8
b10110 9
b10111 9
#400000
0!
#401000
1!
b10101 2
#402000
0!
#403000
1!
b10101 1
b10101 /
0@
#404000
0!
#405000
1!
0<
0(
b01001 >
b01101 ?
1@
#406000
0"
0!
#407000
1!
b01001 =
b1001 +
b01101 ;
b01101 .
1<
1(
b01001 >
#408000
0!
#409000
1!
#410000
0!
#411000
1!
#412000
0!
#413000
1"
1!
b01100 3
b01100 0
b01101 4
b10111 5
b10111 -
b11010 7
b1010 ,
b11011 8
b10110 9
#414000
0!
#415000
1!
b10111 2
#416000
0!
#417000
1!
b10111 1
b10111 /
0@
#418000
0!
#419000
1!
0<
0(
b01010 >
b01110 ?
b01111 ?
1@
#420000
0"
0!
#421000
1!
b01010 =
b1010 +
b01111 ;
b01111 .
1<
1(
b01010 >
#422000
0!
#423000
1!
#424000
0!
#425000
1!
#426000
0!
#427000
1"
1!
b01101 3
b01101 0
b01111 4
b10110 5
b10110 -
b11011 7
b1011 ,
b11100 8
b10001 9
b10010 9
#428000
0!
#429000
1!
b10110 2
#430000
0!
#431000
1!
b10110 1
b10110 /
0@
#432000
0!
#433000
1!
0<
0(
b01011 >
b01110 ?
1@
#434000
0"
0!
#435000
1!
b01011 =
b1011 +
b01110 ;
b01110 .
1<
1(
b01011 >
#436000
0!
#437000
1!
#438000
0!
#439000
1!
#440000
0!
#441000
1"
1!
b01111 3
b01111 0
b01110 4
b10010 5
b10010 -
b11100 7
b1100 ,
b11101 8
b10011 9
#442000
0!
#443000
1!
b10010 2
#444000
0!
#445000
1!
b10010 1
b10010 /
0@
#446000
0!
#447000
1!
0<
0(
b01100 >
b01001 ?
b01010 ?
1@
#448000
0"
0!
#449000
1!
b01100 =
b1100 +
b01010 ;
b01010 .
1<
1(
b01100 >
#450000
0!
#451000
1!
#452000
0!
#453000
1!
#454000
0!
#455000
1"
1!
b01110 3
b01110 0
b01010 4
b10011 5
b10011 -
b11101 7
b1101 ,
b11110 8
b10000 9
b10001 9
#456000
0!
#457000
1!
b10011 2
#458000
0!
#459000
1!
b10011 1
b10011 /
0@
#460000
0!
#461000
1!
0<
0(
b01101 >
b01011 ?
1@
#462000
0"
0!
#463000
1!
b01101 =
b1101 +
b01011 ;
b01011 .
1<
1(
b01101 >
#464000
0!
#465000
1!
#466000
0!
#467000
1!
#468000
0!
#469000
1"
1!
b01010 3
b01010 0
b01011 4
b10001 5
b10001 -
b11110 7
b1110 ,
b11111 8
b10000 9
#470000
0!
#471000
1!
b10001 2
#472000
0!
#473000
1!
b10001 1
b10001 /
0@
#474000
0!
#475000
1!
0<
0(
b01110 >
b01000 ?
b01001 ?
1@
#476000
0"
0!
#477000
1!
b01110 =
b1110 +
b01001 ;
b01001 .
1<
1(
b01110 >
#478000
0!
#479000
1!
#480000
0!
#481000
1!
#482000
0!
#483000
1"
1!
b01011 3
b01011 0
b01001 4
b10000 5
b10000 -
b11111 7
b1111 ,
b00000 8
b01111 9
b00000 9
#484000
0!
#485000
1!
b10000 2
#486000
0!
#487000
1!
b10000 1
b10000 /
0@
#488000
0!
#489000
1!
0<
0(
b01111 >
b01000 ?
1@
#490000
0"
0!
#491000
1!
b01111 =
b1111 +
b01000 ;
b01000 .
1<
1(
b01111 >
#492000
0!
#493000
1!
#494000
0!
#495000
1!
#496000
0!
#497000
1"
1!
b01001 3
b01001 0
b01000 4
b00000 5
b00000 -
b00000 7
b0000 ,
b00001 8
b00001 9
#498000
0!
#499000
1!
b00000 2
#500000
0!
#501000
1!
b00000 1
b00000 /
0@
#502000
0!
#503000
1!
0<
0(
b10000 >
b10111 ?
b11000 ?
1@
#504000
0"
0!
#505000
1!
b10000 =
b0000 +
b11000 ;
b11000 .
1<
1(
b10000 >
#506000
0!
#507000
1!
#508000
0!
#509000
1!
#510000
0!
#511000
1"
1!
b01000 3
b01000 0
b11000 4
b00001 5
b00001 -
b00001 7
b0001 ,
b00010 8
b00010 9
b00011 9
#512000
0!
#513000
1!
b00001 2
#514000
0!
#515000
1!
b00001 1
b00001 /
0@
#516000
0!
#517000
1!
0<
0(
b10001 >
b11001 ?
1@
#518000
0"
0!
#519000
1!
b10001 =
b0001 +
b11001 ;
b11001 .
1<
1(
b10001 >
#520000
0!
#521000
1!
#522000
0!
#523000
1!
#524000
0!
#525000
1"
1!
b11000 3
b11000 0
b11001 4
b00011 5
b00011 -
b00010 7
b0010 ,
b00011 8
b00010 9
#526000
0!
#527000
1!
b00011 2
#528000
0!
#529000
1!
b00011 1
b00011 /
0@
#530000
0!
#531000
1!
0<
0(
b10010 >
b11010 ?
b11011 ?
1@
#532000
0"
0!
#533000
1!
b10010 =
b0010 +
b11011 ;
b11011 .
1<
1(
b10010 >
#534000
0!
#535000
1!
#536000
0!
#537000
1!
#538000
0!
#539000
1"
1!
b11001 3
b11001 0
b11011 4
b00010 5
b00010 -
b00011 7
b0011 ,
b00100 8
b00101 9
b00110 9
#540000
0!
#541000
1!
b00010 2
#542000
0!
#543000
1!
b00010 1
b00010 /
0@
#544000
0!
#545000
1!
0<
0(
b10011 >
b11010 ?
1@
#546000
0"
0!
#547000
1!
b10011 =
b0011 +
b11010 ;
b11010 .
1<
1(
b10011 >
#548000
0!
#549000
1!
#550000
0!
#551000
1!
#552000
0!
#553000
1"
1!
b11011 3
b11011 0
b11010 4
b00110 5
b00110 -
b00100 7
b0100 ,
b00101 8
b00111 9
#554000
0!
#555000
1!
b00110 2
#556000
0!
#557000
1!
b00110 1
b00110 /
0@
#558000
0!
#559000
1!
0<
0(
b10100 >
b11101 ?
b11110 ?
1@
#560000
0"
0!
#561000
1!
b10100 =
b0100 +
b11110 ;
b11110 .
1<
1(
b10100 >
#562000
0!
#563000
1!
#564000
0!
#565000
1!
#566000
0!
#567000
1"
1!
b11010 3
b11010 0
b11110 4
b00111 5
b00111 -
b00101 7
b0101 ,
b00110 8
b00100 9
b00101 9
#568000
0!
#569000
1!
b00111 2
#570000
0!
#571000
1!
b00111 1
b00111 /
0@
#572000
0!
#573000
1!
0<
0(
b10101 >
b11111 ?
1@
#574000
0"
0!
#575000
1!
b10101 =
b0101 +
b11111 ;
b11111 .
1<
1(
b10101 >
#576000
0!
#577000
1!
#578000
0!
#579000
1!
#580000
0!
#581000
1"
1!
b11110 3
b11110 0
b11111 4
b00101 5
b00101 -
b00110 7
b0110 ,
b00111 8
b00100 9
#582000
0!
#583000
1!
b00101 2
#584000
0!
#585000
1!
b00101 1
b00101 /
0@
#586000
0!
#587000
1!
0<
0(
b10110 >
b11100 ?
b11101 ?
1@
#588000
0"
0!
#589000
1!
b10110 =
b0110 +
b11101 ;
b11101 .
1<
1(
b10110 >
#590000
0!
#591000
1!
#592000
0!
#593000
1!
#594000
0!
#595000
1"
1!
b11111 3
b11111 0
b11101 4
b00100 5
b00100 -
b00111 7
b0111 ,
b01000 8
b01011 9
b01100 9
#596000
0!
#597000
1!
b00100 2
#598000
0!
#599000
1!
b00100 1
b00100 /
0@
#600000
0!
#601000
1!
0<
0(
b10111 >
b11100 ?
1@
#602000
0"
0!
#603000
1!
b10111 =
b0111 +
b11100 ;
b11100 .
1<
1(
b10111 >
#604000
0!
#605000
1!
#606000
0!
#607000
1!
#608000
0!
#609000
1"
1!
b11101 3
b11101 0
b11100 4
b01100 5
b01100 -
b01000 7
b1000 ,
b01001 8
b01101 9
#610000
0!
#611000
1!
b01100 2
#612000
0!
#613000
1!
b01100 1
b01100 /
0@
#614000
0!
#615000
1!
0<
0(
b11000 >
b10011 ?
b10100 ?
1@
#616000
0"
0!
#617000
1!
b11000 =
b1000 +
b10100 ;
b10100 .
1<
1(
b11000 >
#618000
0!
#619000
1!
#620000
0!
#621000
1!
#622000
0!
#623000
1"
1!
b11100 3
b11100 0
b10100 4
b01101 5
b01101 -
b01001 7
b1001 ,
b01010 8
b01110 9
b01111 9
#624000
0!
#625000
1!
b01101 2
#626000
0!
#627000
1!
b01101 1
b01101 /
0@
#628000
0!
#629000
1!
0<
0(
b11001 >
b10101 ?
1@
#630000
0"
0!
#631000
1!
b11001 =
b1001 +
b10101 ;
b10101 .
1<
1(
b11001 >
#632000
0!
#633000
1!
#634000
0!
#635000
1!
#636000
0!
#637000
1"
1!
b10100 3
b10100 0
b10101 4
b01111 5
b01111 -
b01010 7
b1010 ,
b01011 8
b01110 9
#638000
0!
#639000
1!
b01111 2
#640000
0!
#641000
1!
b01111 1
b01111 /
0@
#642000
0!
#643000
1!
0<
0(
b11010 >
b10110 ?
b10111 ?
1@
#644000
0"
0!
#645000
1!
b11010 =
b1010 +
b10111 ;
b10111 .
1<
1(
b11010 >
#646000
0!
#647000
1!
#648000
0!
#649000
1!
#650000
0!
#651000
1"
1!
b10101 3
b10101 0
b10111 4
b01110 5
b01110 -
b01011 7
b1011 ,
b01100 8
b01001 9
b01010 9
#652000
0!
#653000
1!
b01110 2
#654000
0!
#655000
1!
b01110 1
b01110 /
0@
#656000
0!
#657000
1!
0<
0(
b11011 >
b10110 ?
1@
#658000
0"
0!
#659000
1!
b11011 =
b1011 +
b10110 ;
b10110 .
1<
1(
b11011 >
#660000
0!
#661000
1!
#662000
0!
#663000
1!
#664000
0!
#665000
1"
1!
b10111 3
b10111 0
b10110 4
b01010 5
b01010 -
b01100 7
b1100 ,
b01101 8
b01011 9
#666000
0!
#667000
1!
b01010 2
#668000
0!
#669000
1!
b01010 1
b01010 /
0@
#670000
0!
#671000
1!
0<
0(
b11100 >
b10001 ?
b10010 ?
1@
#672000
0"
0!
#673000
1!
b11100 =
b1100 +
b10010 ;
b10010 .
1<
1(
b11100 >
#674000
0!
#675000
1!
#676000
0!
#677000
1!
#678000
0!
#679000
1"
1!
b10110 3
b10110 0
b10010 4
b01011 5
b01011 -
b01101 7
b1101 ,
b01110 8
b01000 9
b01001 9
#680000
0!
#681000
1!
b01011 2
#682000
0!
#683000
1!
b01011 1
b01011 /
0@
#684000
0!
#685000
1!
0<
0(
b11101 >
b10011 ?
1@
#686000
0"
0!
#687000
1!
b11101 =
b1101 +
b10011 ;
b10011 .
1<
1(
b11101 >
#688000
0!
#689000
1!
#690000
0!
#691000
1!
#692000
0!
#693000
1"
1!
b10010 3
b10010 0
b10011 4
b01001 5
b01001 -
b01110 7
b1110 ,
b01111 8
b01000 9
#694000
0!
#695000
1!
b01001 2
#696000
0!
#697000
1!
b01001 1
b01001 /
0@
#698000
0!
#699000
1!
0<
0(
b11110 >
b10000 ?
b10001 ?
1@
#700000
0"
0!
#701000
1!
b11110 =
b1110 +
b10001 ;
b10001 .
1<
1(
b11110 >
#702000
0!
#703000
1!
#704000
0!
#705000
1!
#706000
0!
#707000
1"
1!
b10011 3
b10011 0
b10001 4
b01000 5
b01000 -
b01111 7
b1111 ,
b10000 8
b10111 9
b11000 9
#708000
0!
#709000
1!
b01000 2
#710000
0!
#711000
1!
b01000 1
b01000 /
0@
#712000
0!
#713000
1!
0<
0(
b11111 >
b10000 ?
1@
#714000
0"
0!
#715000
1!
b11111 =
b1111 +
b10000 ;
b10000 .
1<
1(
b11111 >
#716000
0!
#717000
1!
#718000
0!
#719000
1!
#720000
0!
#721000
1"
1!
b10001 3
b10001 0
b10000 4
b11000 5
b11000 -
b10000 7
b0000 ,
b10001 8
b11001 9
#722000
0!
#723000
1!
b11000 2
#724000
0!
#725000
1!
b11000 1
b11000 /
0@
#726000
0!
#727000
1!
0<
0(
b00000 >
b01111 ?
b00000 ?
1@
#728000
0"
0!
#729000
1!
b00000 =
b0000 +
b00000 ;
b00000 .
1<
1(
b00000 >
#730000
0!
#731000
1!
#732000
0!
#733000
1!
#734000
0!
#735000
1"
1!
b10000 3
b10000 0
b00000 4
b11001 5
b11001 -
b10001 7
b0001 ,
b10010 8
b11010 9
b11011 9
#736000
0!
#737000
1!
b11001 2
#738000
0!
#739000
1!
b11001 1
b11001 /
0@
#740000
0!
#741000
1!
0<
0(
b00001 >
b00001 ?
1@
#742000
0"
0!
#743000
1!
b00001 =
b0001 +
b00001 ;
b00001 .
1<
1(
b00001 >
#744000
0!
#745000
1!
#746000
0!
#747000
1!
#748000
0!
#749000
1"
1!
b00000 3
b00000 0
b00001 4
b11011 5
b11011 -
b10010 7
b0010 ,
b10011 8
b11010 9
#750000
0!
#751000
1!
b11011 2
#752000
0!
#753000
1!
b11011 1
b11011 /
0@
#754000
0!
#755000
1!
0<
0(
b00010 >
b00010 ?
b00011 ?
1@
#756000
0"
0!
#757000
1!
b00010 =
b0010 +
b00011 ;
b00011 .
1<
1(
b00010 >
#758000
0!
#759000
1!
#760000
0!
#761000
1!
#762000
0!
#763000
1"
1!
b00001 3
b00001 0
b00011 4
b11010 5
b11010 -
b10011 7
b0011 ,
b10100 8
b11101 9
b11110 9
#764000
0!
#765000
1!
b11010 2
#766000
0!
#767000
1!
b11010 1
b11010 /
0@
#768000
0!
#769000
1!
0<
0(
b00011 >
b00010 ?
1@
#770000
0"
0!
#771000
1!
b00011 =
b0011 +
b00010 ;
b00010 .
1<
1(
b00011 >
#772000
0!
#773000
1!
#774000
0!
#775000
1!
#776000
0!
#777000
1"
1!
b00011 3
b00011 0
b00010 4
b11110 5
b11110 -
b10100 7
b0100 ,
b10101 8
b11111 9
#778000
0!
#779000
1!
b11110 2
#780000
0!
#781000
1!
b11110 1
b11110 /
0@
#782000
0!
#783000
1!
0<
0(
b00100 >
b00101 ?
b00110 ?
1@
#784000
0"
0!
#785000
1!
b00100 =
b0100 +
b00110 ;
b00110 .
1<
1(
b00100 >
#786000
0!
#787000
1!
#788000
0!
#789000
1!
#790000
0!
#791000
1"
1!
b00010 3
b00010 0
b00110 4
b11111 5
b11111 -
b10101 7
b0101 ,
b10110 8
b11100 9
b11101 9
#792000
0!
#793000
1!
b11111 2
#794000
0!
#795000
1!
b11111 1
b11111 /
0@
#796000
0!
